[{

		"Version": "V4.1",
		"Date Released": "September 2020",
		"Download Link": "https://www.ags.org.uk/data-format/ags41-data-format/download/",
		"Status": "Current version"
	}, {

		"Version": "V4.0.4",
		"Date Released": "February 2017",
		"Download Link": "https://www.ags.org.uk/data-format/ags404-data-format/download/",
		"Status": "Deprecated version"
	},{

		"Version": "V4.0.3",
		"Date Released": "October 2011",
		"Download Link": "https://www.ags.org.uk/data-format/ags403-data-format/download/",
		"Status": "Deprecated version - unsupported"
	}, {

		"Version": "V4.0.2",
		"Date Released": "May 2011",
		"Download Link": "https://www.ags.org.uk/data-format/ags402-data-format/download/",
		"Status": "Deprecated version - unsupported"
	}, {

		"Version": "V4.0.1",
		"Date Released": "March 2011",
		"Download Link": "https://www.ags.org.uk/data-format/ags401-data-format/download/",
		"Status": "Deprecated version - unsupported"
	}, {

		"Version": "V4.0.0",
		"Date Released": "May 2010",
		"Download Link": "https://www.ags.org.uk/data-format/ags400-data-format/download/",
		"Status": "Deprecated version - unsupported"
	}
]
