[
 {
   "Description": "Original AGS 3.1 Example file from AGS 3.1 Publication Document",
   "Link to Guidance": "",
   "Link to Example": "https://gitlab.com/Didymograptus/ASG4/raw/master/AGS3/Examples/ExampleAGS3-1.zip||Download AGS File"
 },
 {
   "Description": "Monitoring Example 1: Temperature measuring point example",
   "Link to Guidance": "https://gitlab.com/Didymograptus/ASG4/raw/master/AGS3/Guidance/01-temperature_measuring_point_3_1.pdf||Download Description Document",
   "Link to Example": "https://gitlab.com/Didymograptus/ASG4/raw/master/AGS3/Examples/ExampleAGS3-1.zip||Download AGS File"
 },
 {
   "Description": "Monitoring Example 2: Precise level point",
   "Link to Guidance": "https://gitlab.com/Didymograptus/ASG4/raw/master/AGS3/Guidance/02-precise_level_point_3_1.pdf||Download Description Document",
   "Link to Example": "https://gitlab.com/Didymograptus/ASG4/raw/master/AGS3/Examples/ExampleAGS3-1.zip||Download AGS File"
 },
 {
   "Description": "Monitoring Example 3: Total station point",
   "Link to Guidance": "https://gitlab.com/Didymograptus/ASG4/raw/master/AGS3/Guidance/03-total_station_point_3_1.pdf||Download Description Document",
   "Link to Example": "https://gitlab.com/Didymograptus/ASG4/raw/master/AGS3/Examples/ExampleAGS3-1.zip||Download AGS File"
 },
 {
   "Description": "Monitoring Example 4: Standpipe Piezometer example",
   "Link to Guidance": "https://gitlab.com/Didymograptus/ASG4/raw/master/AGS3/Guidance/04-standpipe_piezometer_3_1.pdf||Download Description Document",
   "Link to Example": "https://gitlab.com/Didymograptus/ASG4/raw/master/AGS3/Examples/ExampleAGS3-1.zip||Download AGS File"
 },
 {
   "Description": "Monitoring Example 5: Strain gauge example",
   "Link to Guidance": "https://gitlab.com/Didymograptus/ASG4/raw/master/AGS3/Guidance/05-strain_gauge_3_1.pdf||Download Description Document",
   "Link to Example": "https://gitlab.com/Didymograptus/ASG4/raw/master/AGS3/Examples/ExampleAGS3-1.zip||Download AGS File"
 },
 {
   "Description": "Monitoring Example 6: Prop load example",
   "Link to Guidance": "https://gitlab.com/Didymograptus/ASG4/raw/master/AGS3/Guidance/06-prop_load_3_1.pdf||Download Description Document",
   "Link to Example": "https://gitlab.com/Didymograptus/ASG4/raw/master/AGS3/Examples/ExampleAGS3-1.zip||Download AGS File"
 },
 {
   "Description": "Monitoring Example 7: Earth pressure cell example",
   "Link to Guidance": "https://gitlab.com/Didymograptus/ASG4/raw/master/AGS3/Guidance/07-earth_pressure_cell_3_1.pdf||Download Description Document",
   "Link to Example": "https://gitlab.com/Didymograptus/ASG4/raw/master/AGS3/Examples/ExampleAGS3-1.zip||Download AGS File"
 },
 {
   "Description": "Monitoring Example 8: Hydraulic settlement cell example",
   "Link to Guidance": "https://gitlab.com/Didymograptus/ASG4/raw/master/AGS3/Guidance/08-hydraulic_settlement_cell_3_1.pdf||Download Description Document",
   "Link to Example": "https://gitlab.com/Didymograptus/ASG4/raw/master/AGS3/Examples/ExampleAGS3-1.zip||Download AGS File"
 },
 {
   "Description": "Monitoring Example 9: Slip indicator example",
   "Link to Guidance": "https://gitlab.com/Didymograptus/ASG4/raw/master/AGS3/Guidance/09-slip_indicator_3_1.pdf||Download Description Document",
   "Link to Example": "https://gitlab.com/Didymograptus/ASG4/raw/master/AGS3/Examples/ExampleAGS3-1.zip||Download AGS File"
 },
 {
   "Description": "Monitoring Example 10: Discontinuity monitoring example",
   "Link to Guidance": "https://gitlab.com/Didymograptus/ASG4/raw/master/AGS3/Guidance/10-discontinuity_monitoring_3_1.pdf||Download Description Document",
   "Link to Example": "https://gitlab.com/Didymograptus/ASG4/raw/master/AGS3/Examples/ExampleAGS3-1.zip||Download AGS File"
 },
 {
   "Description": "Monitoring Example 11: Electrolevel uniaxial option 1 example",
   "Link to Guidance": "https://gitlab.com/Didymograptus/ASG4/raw/master/AGS3/Guidance/11-electrolevel_uniaxial_option_1_3_1.pdf||Download Description Document",
   "Link to Example": "https://gitlab.com/Didymograptus/ASG4/raw/master/AGS3/Examples/ExampleAGS3-1.zip||Download AGS File"
 },
 {
   "Description": "Monitoring Example 12: Electrolevel uniaxial option 2 example",
   "Link to Guidance": "https://gitlab.com/Didymograptus/ASG4/raw/master/AGS3/Guidance/12-electrolevel_uniaxial_option_2_3_1.pdf||Download Description Document",
   "Link to Example": "https://gitlab.com/Didymograptus/ASG4/raw/master/AGS3/Examples/ExampleAGS3-1.zip||Download AGS File"
 },
 {
   "Description": "Monitoring Example 13: Electrolevel biaxial option 1 example",
   "Link to Guidance": "https://gitlab.com/Didymograptus/ASG4/raw/master/AGS3/Guidance/13-electrolevel_biaxial_option_1_3_1.pdf||Download Description Document",
   "Link to Example": "https://gitlab.com/Didymograptus/ASG4/raw/master/AGS3/Examples/ExampleAGS3-1.zip||Download AGS File"
 },
 {
   "Description": "Monitoring Example 14: Electrolevel biaxial option 2 example",
   "Link to Guidance": "https://gitlab.com/Didymograptus/ASG4/raw/master/AGS3/Guidance/14-electrolevel_biaxial_option_2_3_1.pdf||Download Description Document",
   "Link to Example": "https://gitlab.com/Didymograptus/ASG4/raw/master/AGS3/Examples/ExampleAGS3-1.zip||Download AGS File"
 },
 {
   "Description": "Monitoring Example 15: Tunnel rod extensometer example",
   "Link to Guidance": "https://gitlab.com/Didymograptus/ASG4/raw/master/AGS3/Guidance/15-tunnel_rod_extensometer_3_1.pdf||Download Description Document",
   "Link to Example": "https://gitlab.com/Didymograptus/ASG4/raw/master/AGS3/Examples/ExampleAGS3-1.zip||Download AGS File"
 },
 {
   "Description": "Monitoring Example 16: Tape extensometer example",
   "Link to Guidance": "https://gitlab.com/Didymograptus/ASG4/raw/master/AGS3/Guidance/16-tape_extensometer_3_1.pdf||Download Description Document",
   "Link to Example": "https://gitlab.com/Didymograptus/ASG4/raw/master/AGS3/Examples/ExampleAGS3-1.zip||Download AGS File"
 },
 {
   "Description": "Monitoring Example 17: Borehole magnetic extensometer example",
   "Link to Guidance": "https://gitlab.com/Didymograptus/ASG4/raw/master/AGS3/Guidance/17-borehole_magnetic_extensometer_3_1.pdf||Download Description Document",
   "Link to Example": "https://gitlab.com/Didymograptus/ASG4/raw/master/AGS3/Examples/ExampleAGS3-1.zip||Download AGS File"
 },
 {
   "Description": "Monitoring Example 18: Groundwater monitoring point example",
   "Link to Guidance": "https://gitlab.com/Didymograptus/ASG4/raw/master/AGS3/Guidance/18-groundwater_monitoring_point_3_1.pdf||Download Description Document",
   "Link to Example": "https://gitlab.com/Didymograptus/ASG4/raw/master/AGS3/Examples/ExampleAGS3-1.zip||Download AGS File"
 },
 {
   "Description": "Original AGS 3 Example file from AGS 3 Publication Document included for historical reference",
   "Link to Guidance": "",
   "Link to Example": "https://gitlab.com/Didymograptus/ASG4/raw/master/AGS3/Examples/ExampleAGS3-1.zip||Download AGS File"
 }
]