[
        {
            "Action": "Data-type change",
            "Group": "CTRP",
            "Heading": "CTRP_CYC",
            "Comments": "\"X\" to \"0DP\" and example changed from '5' to '2'"
        },
        {
            "Action": "Data-type change",
            "Group": "FGHI",
            "Heading": "FGHI_INST",
            "Comments": "\"ID\" to \"X\""
        },
        {
            "Action": "Data-type change",
            "Group": "RSCH",
            "Heading": "RSCH_ORN",
            "Comments": "\"\" to \"X\""
        },
        {
            "Action": "Data-type change",
            "Group": "RSCH",
            "Heading": "RSCH_HTYP",
            "Comments": "\"X\" to \"PA\""
        },
        {
            "Action": "Data-type change",
            "Group": "RUCS",
            "Heading": "RUCS_STRA",
            "Comments": "\"1DP\" to \"3DP\""
        },
        {
            "Action": "Description change",
            "Group": "DICT",
            "Heading": "DICT_HDNG",
            "Comments": "\"Heading name (Note: This data is REQUIRED where DICT_TYPE=\"HEADING\")\" to \"Heading name   (Note: This data is REQUIRED where DICT_TYPE='HEADING')\""
        },
        {
            "Action": "Description change",
            "Group": "DICT",
            "Heading": "DICT_STAT",
            "Comments": "\"Heading status KEY, REQUIRED or OTHER (Note: This data is REQUIRED where DICT_TYPE=\"HEADING\")\" to \"Heading status KEY, REQUIRED or OTHER (Note: This data is REQUIRED where DICT_TYPE='HEADING')\""
        },
        {
            "Action": "Description change",
            "Group": "DICT",
            "Heading": "DICT_PGRP",
            "Comments": "\"Parent group name (Note: This data is REQUIRED where DICT_TYPE=\"GROUP\")\" to \"Parent group name (Note: This data is REQUIRED where DICT_TYPE='GROUP')\""
        },
        {
            "Action": "Description change",
            "Group": "DICT",
            "Heading": "DICT_DTYP",
            "Comments": "\"Type of data and format (Note: This data is REQUIRED where DICT_TYPE=\"HEADING\")\" to \"Type of data and format (Note: This data is REQUIRED where DICT_TYPE='HEADING')\""
        },
        {
            "Action": "Description change",
            "Group": "DICT",
            "Heading": "DICT_UNIT",
            "Comments": "\"Units (Note: This data is REQUIRED where DICT_TYPE=\"HEADING\")\" to \"Units (Note: This data is REQUIRED where DICT_TYPE='HEADING')\""
        },
        {
            "Action": "Description change",
            "Group": "ELRG",
            "Heading": "FILE_FSET",
            "Comments": "\"Associated file reference\" to \"Associated file reference (e.g. test result sheets)\""
        },
        {
            "Action": "Description change",
            "Group": "ELRG",
            "Heading": "SAMP_TOP",
            "Comments": "\"Depth of top of sample\" to \"Depth to top of sample\""
        },
        {
            "Action": "Description change",
            "Group": "ELRG",
            "Heading": "ELRG_IREF",
            "Comments": "\"Instrument reference no or identifier\" to \"Instrument reference number or identifier\""
        },
        {
            "Action": "Description change",
            "Group": "ELRG",
            "Heading": "LOCA_ID",
            "Comments": "\"Location identifier\" to \"Location Identifier\""
        },
        {
            "Action": "Description change",
            "Group": "ELRG",
            "Heading": "ELRG_SIZE",
            "Comments": "\"Size of material removed prior to test value given indicates lowest sized material removed\" to \"Size of material removed prior to test; value given indicates lowest sized material removed\""
        },
        {
            "Action": "Description change",
            "Group": "ELRG",
            "Heading": "ELRG_TEST",
            "Comments": "\"Test or suite name\" to \"Test or Suite Name\""
        },
        {
            "Action": "Description change",
            "Group": "ERES",
            "Heading": "ERES_LAB",
            "Comments": "\"Name of testing laboratory/organization\" to \"Name of testing laboratory/ Organization\""
        },
        {
            "Action": "Description change",
            "Group": "ERES",
            "Heading": "ERES_DUNI",
            "Comments": "\"Unit of detection / quantification  limits\" to \"Unit of detection / quantification limits\""
        },
        {
            "Action": "Description change",
            "Group": "ESCG",
            "Heading": "ESCG_DEV",
            "Comments": "\"Deviation from the specified procedure\" to \"Deviations from the test method\""
        },
        {
            "Action": "Description change",
            "Group": "FGHI",
            "Heading": "FGHI_TYPE",
            "Comments": "\"Test record type\" to \"Instrument measured parameters\""
        },
        {
            "Action": "Description change",
            "Group": "FGHT",
            "Heading": "FILE_FSET",
            "Comments": "\"Associated file reference (e.g. test result sheets)\" to \"Associated file reference (e.g. equipment calibrations)\""
        },
        {
            "Action": "Description change",
            "Group": "GCHM",
            "Heading": "GCHM_LAB",
            "Comments": "\"Name of testing laboratory/organization\" to \"Name of testing laboratory/ organization\""
        },
        {
            "Action": "Description change",
            "Group": "HDPH",
            "Heading": "HDPH_STAB",
            "Comments": "\"Stability of trial pit /  trial trench or logged traverse length\" to \"Stability of trial pit / trial trench or logged traverse length\""
        },
        {
            "Action": "Description change",
            "Group": "HDPH",
            "Heading": "HDPH_DIMW",
            "Comments": "\"Trial pit / trial trench  or logged traverse width\" to \"Trial pit / trial trench or logged traverse width\""
        },
        {
            "Action": "Description change",
            "Group": "IPRG",
            "Heading": "IPRG_HEAD",
            "Comments": "\"Applied total head of water during test stage at centre of  test zone\" to \"Applied total head of water during test stage at centre of test zone\""
        },
        {
            "Action": "Description change",
            "Group": "IPRG",
            "Heading": "IPRG_FLOW",
            "Comments": "\"Average flow during  test stage\" to \"Average flow during test stage\""
        },
        {
            "Action": "Description change",
            "Group": "IPRG",
            "Heading": "IPRG_STG",
            "Comments": "\"Stage number of multistage  test\" to \"Stage number of multistage test\""
        },
        {
            "Action": "Description change",
            "Group": "LFCN",
            "Heading": "FILE_FSET",
            "Comments": "\"Associated file reference (e.g. test result sheets)\" to \"Associated file reference (e.g. equipment calibrations)\""
        },
        {
            "Action": "Description change",
            "Group": "LFCN",
            "Heading": "LFCN_REM",
            "Comments": "\"Remarks\" to \"Test remarks\""
        },
        {
            "Action": "Description change",
            "Group": "LLIN",
            "Heading": "LLIN_425",
            "Comments": "\"Percentage passing 425µm sieve\" to \"Percentage passing 0.425 mm sieve\""
        },
        {
            "Action": "Description change",
            "Group": "LLPL",
            "Heading": "LLPL_1PCF",
            "Comments": "\"Correlation factor if one-point test.\" to \"Correlation factor if one-point test\""
        },
        {
            "Action": "Description change",
            "Group": "LLPL",
            "Heading": "LLPL_1PRE",
            "Comments": "\"Mean of test readings, if one-point test.\" to \"Mean of test readings, if one-point test\""
        },
        {
            "Action": "Description change",
            "Group": "LLPL",
            "Heading": "LLPL_425",
            "Comments": "\"Percentage passing 425µm sieve\" to \"Percentage passing 0.425 mm sieve\""
        },
        {
            "Action": "Description change",
            "Group": "LPEN",
            "Heading": "LPEN_DEV",
            "Comments": "\"Deviation from the specified test procedure\" to \"Deviation from the specified procedure\""
        },
        {
            "Action": "Description change",
            "Group": "LSLT",
            "Heading": "LSLT_425",
            "Comments": "\"Percentage passing 425µm sieve\" to \"Percentage passing 0.425mm sieve\""
        },
        {
            "Action": "Description change",
            "Group": "LSTG",
            "Heading": "LSTG_425",
            "Comments": "\"Percentage of soil passing 425µm sieve\" to \"Percentage of soil passing 0.425mm sieve\""
        },
        {
            "Action": "Description change",
            "Group": "LSWL",
            "Heading": "LSWL_LAB",
            "Comments": "\"Name of testing laboratory/organization\" to \"Name of testing laboratory/ organization\""
        },
        {
            "Action": "Description change",
            "Group": "LTCH",
            "Heading": "LTCH_CRED",
            "Comments": "\"Accrediting body and reference number (where appropriate)\" to \"Accrediting body and reference number (when appropriate)\""
        },
        {
            "Action": "Description change",
            "Group": "LTCH",
            "Heading": "FILE_FSET",
            "Comments": "\"Associated file reference\" to \"Associated file reference (e.g. equipment calibrations)\""
        },
        {
            "Action": "Description change",
            "Group": "LTCH",
            "Heading": "LTCH_DEV",
            "Comments": "\"Deviation from the specified procedure\" to \"Deviation from the procedure\""
        },
        {
            "Action": "Description change",
            "Group": "LTCH",
            "Heading": "SPEC_DESC",
            "Comments": "\"Specimen description\" to \"Specimen description following the principles in ISO 14688-1\""
        },
        {
            "Action": "Description change",
            "Group": "LTCH",
            "Heading": "LTCH_REM",
            "Comments": "\"Test remarks\" to \"Remarks\""
        },
        {
            "Action": "Description change",
            "Group": "LTCH",
            "Heading": "TEST_STAT",
            "Comments": "\"Test Status\" to \"Test status\""
        },
        {
            "Action": "Description change",
            "Group": "LUCT",
            "Heading": "LUCT_LAB",
            "Comments": "\"Name of testing laboratory/organization\" to \"Name of testing laboratory/ organization\""
        },
        {
            "Action": "Description change",
            "Group": "MOND",
            "Heading": "MOND_CONT",
            "Comments": "\"organization taking reading\" to \"Organization taking reading\""
        },
        {
            "Action": "Description change",
            "Group": "PMTG",
            "Heading": "PMTG_WAT",
            "Comments": "\"Measured or assumed ground water  level \" to \"Measured or assumed ground water level\""
        },
        {
            "Action": "Description change",
            "Group": "RCAG",
            "Heading": "RCAG_DEV",
            "Comments": "\"Deviations from the test method\" to \"Deviation from the specified procedure\""
        },
        {
            "Action": "Description change",
            "Group": "RESG",
            "Heading": "RESG_METH",
            "Comments": "\"Test method  \" to \"Test method\""
        },
        {
            "Action": "Example added",
            "Group": "AAVT",
            "Heading": "AAVT_DEV",
            "Comments": ""
        },
        {
            "Action": "Example added",
            "Group": "AAVT",
            "Heading": "AAVT_REM",
            "Comments": ""
        },
        {
            "Action": "Example added",
            "Group": "ABBR",
            "Heading": "ABBR_REM",
            "Comments": ""
        },
        {
            "Action": "Example added",
            "Group": "ACVT",
            "Heading": "ACVT_DEV",
            "Comments": ""
        },
        {
            "Action": "Example added",
            "Group": "ACVT",
            "Heading": "ACVT_REM",
            "Comments": ""
        },
        {
            "Action": "Example added",
            "Group": "AELO",
            "Heading": "AELO_DEV",
            "Comments": ""
        },
        {
            "Action": "Example added",
            "Group": "AELO",
            "Heading": "AELO_REM",
            "Comments": ""
        },
        {
            "Action": "Example added",
            "Group": "AFLK",
            "Heading": "AFLK_DEV",
            "Comments": ""
        },
        {
            "Action": "Example added",
            "Group": "AFLK",
            "Heading": "AFLK_REM",
            "Comments": ""
        },
        {
            "Action": "Example added",
            "Group": "AIVT",
            "Heading": "AIVT_DEV",
            "Comments": ""
        },
        {
            "Action": "Example added",
            "Group": "AIVT",
            "Heading": "AIVT_REM",
            "Comments": ""
        },
        {
            "Action": "Example added",
            "Group": "ALOS",
            "Heading": "ALOS_DEV",
            "Comments": ""
        },
        {
            "Action": "Example added",
            "Group": "ALOS",
            "Heading": "ALOS_REM",
            "Comments": ""
        },
        {
            "Action": "Example added",
            "Group": "APSV",
            "Heading": "APSV_DEV",
            "Comments": ""
        },
        {
            "Action": "Example added",
            "Group": "APSV",
            "Heading": "APSV_REM",
            "Comments": ""
        },
        {
            "Action": "Example added",
            "Group": "ARTW",
            "Heading": "ARTW_DEV",
            "Comments": ""
        },
        {
            "Action": "Example added",
            "Group": "ARTW",
            "Heading": "ARTW_REM",
            "Comments": ""
        },
        {
            "Action": "Example added",
            "Group": "ASDI",
            "Heading": "ASDI_DEV",
            "Comments": ""
        },
        {
            "Action": "Example added",
            "Group": "ASDI",
            "Heading": "ASDI_REM",
            "Comments": ""
        },
        {
            "Action": "Example added",
            "Group": "ASNS",
            "Heading": "ASNS_DEV",
            "Comments": ""
        },
        {
            "Action": "Example added",
            "Group": "ASNS",
            "Heading": "ASNS_REM",
            "Comments": ""
        },
        {
            "Action": "Example added",
            "Group": "AWAD",
            "Heading": "AWAD_DEV",
            "Comments": ""
        },
        {
            "Action": "Example added",
            "Group": "AWAD",
            "Heading": "AWAD_REM",
            "Comments": ""
        },
        {
            "Action": "Example added",
            "Group": "BKFL",
            "Heading": "BKFL_REM",
            "Comments": ""
        },
        {
            "Action": "Example added",
            "Group": "CBRG",
            "Heading": "CBRG_DEV",
            "Comments": ""
        },
        {
            "Action": "Example added",
            "Group": "CBRT",
            "Heading": "CBRT_REM",
            "Comments": ""
        },
        {
            "Action": "Example added",
            "Group": "CDIA",
            "Heading": "CDIA_REM",
            "Comments": ""
        },
        {
            "Action": "Example added",
            "Group": "CHOC",
            "Heading": "CHOC_REM",
            "Comments": ""
        },
        {
            "Action": "Example added",
            "Group": "CMPG",
            "Heading": "CMPG_DEV",
            "Comments": ""
        },
        {
            "Action": "Example added",
            "Group": "CMPT",
            "Heading": "CMPT_REM",
            "Comments": ""
        },
        {
            "Action": "Example added",
            "Group": "CONS",
            "Heading": "CONS_REM",
            "Comments": ""
        },
        {
            "Action": "Example added",
            "Group": "CTRC",
            "Heading": "CTRC_REM",
            "Comments": ""
        },
        {
            "Action": "Example added",
            "Group": "CTRD",
            "Heading": "CTRD_REM",
            "Comments": ""
        },
        {
            "Action": "Example added",
            "Group": "CTRG",
            "Heading": "CTRG_REM",
            "Comments": ""
        },
        {
            "Action": "Example added",
            "Group": "CTRP",
            "Heading": "CTRP_REM",
            "Comments": ""
        },
        {
            "Action": "Example added",
            "Group": "CTRS",
            "Heading": "CTRS_REM",
            "Comments": ""
        },
        {
            "Action": "Example added",
            "Group": "DCPT",
            "Heading": "DCPT_REM",
            "Comments": ""
        },
        {
            "Action": "Example added",
            "Group": "DETL",
            "Heading": "DETL_REM",
            "Comments": ""
        },
        {
            "Action": "Example added",
            "Group": "DICT",
            "Heading": "DICT_REM",
            "Comments": ""
        },
        {
            "Action": "Example added",
            "Group": "DISC",
            "Heading": "DISC_REM",
            "Comments": ""
        },
        {
            "Action": "Example added",
            "Group": "DLOG",
            "Heading": "DLOG_REM",
            "Comments": ""
        },
        {
            "Action": "Example added",
            "Group": "DOBS",
            "Heading": "DOBS_REM",
            "Comments": ""
        },
        {
            "Action": "Example added",
            "Group": "DPRB",
            "Heading": "DPRB_REM",
            "Comments": ""
        },
        {
            "Action": "Example added",
            "Group": "ECTN",
            "Heading": "ECTN_REM",
            "Comments": ""
        },
        {
            "Action": "Example added",
            "Group": "ELRG",
            "Heading": "ELRG_REM",
            "Comments": ""
        },
        {
            "Action": "Example added",
            "Group": "ERES",
            "Heading": "ERES_REM",
            "Comments": ""
        },
        {
            "Action": "Example added",
            "Group": "ESCG",
            "Heading": "ESCG_DEV",
            "Comments": ""
        },
        {
            "Action": "Example added",
            "Group": "FGHG",
            "Heading": "FGHG_REM",
            "Comments": ""
        },
        {
            "Action": "Example added",
            "Group": "FGHI",
            "Heading": "FGHI_REM",
            "Comments": ""
        },
        {
            "Action": "Example added",
            "Group": "FGHS",
            "Heading": "FGHS_REM",
            "Comments": ""
        },
        {
            "Action": "Example added",
            "Group": "FGHT",
            "Heading": "FGHT_REM",
            "Comments": ""
        },
        {
            "Action": "Example added",
            "Group": "FILE",
            "Heading": "FILE_REM",
            "Comments": ""
        },
        {
            "Action": "Example added",
            "Group": "FLSH",
            "Heading": "FLSH_REM",
            "Comments": ""
        },
        {
            "Action": "Example added",
            "Group": "FRAC",
            "Heading": "FRAC_REM",
            "Comments": ""
        },
        {
            "Action": "Example added",
            "Group": "FRST",
            "Heading": "FRST_DEV",
            "Comments": ""
        },
        {
            "Action": "Example added",
            "Group": "FRST",
            "Heading": "FRST_REM",
            "Comments": ""
        },
        {
            "Action": "Example added",
            "Group": "GCHM",
            "Heading": "GCHM_DEV",
            "Comments": ""
        },
        {
            "Action": "Example added",
            "Group": "GCHM",
            "Heading": "GCHM_DTIM",
            "Comments": ""
        },
        {
            "Action": "Example added",
            "Group": "GCHM",
            "Heading": "GCHM_IREF",
            "Comments": ""
        },
        {
            "Action": "Example added",
            "Group": "GCHM",
            "Heading": "GCHM_ITYP",
            "Comments": ""
        },
        {
            "Action": "Example added",
            "Group": "GCHM",
            "Heading": "GCHM_LSID",
            "Comments": ""
        },
        {
            "Action": "Example added",
            "Group": "GCHM",
            "Heading": "GCHM_RDAT",
            "Comments": ""
        },
        {
            "Action": "Example added",
            "Group": "GCHM",
            "Heading": "GCHM_REM",
            "Comments": ""
        },
        {
            "Action": "Example added",
            "Group": "GCHM",
            "Heading": "GCHM_TEST",
            "Comments": ""
        },
        {
            "Action": "Example added",
            "Group": "GEOL",
            "Heading": "GEOL_REM",
            "Comments": ""
        },
        {
            "Action": "Example added",
            "Group": "GRAG",
            "Heading": "GRAG_DEV",
            "Comments": ""
        },
        {
            "Action": "Example added",
            "Group": "GRAG",
            "Heading": "GRAG_REM",
            "Comments": ""
        },
        {
            "Action": "Example added",
            "Group": "GRAT",
            "Heading": "GRAT_REM",
            "Comments": ""
        },
        {
            "Action": "Example added",
            "Group": "HORN",
            "Heading": "HORN_REM",
            "Comments": ""
        },
        {
            "Action": "Example added",
            "Group": "IFID",
            "Heading": "IFID_REM",
            "Comments": ""
        },
        {
            "Action": "Example added",
            "Group": "IPEN",
            "Heading": "IPEN_REM",
            "Comments": ""
        },
        {
            "Action": "Example added",
            "Group": "IPID",
            "Heading": "IPID_REM",
            "Comments": ""
        },
        {
            "Action": "Example added",
            "Group": "IPRG",
            "Heading": "IPRG_REM",
            "Comments": ""
        },
        {
            "Action": "Example added",
            "Group": "IPRT",
            "Heading": "IPRT_REM",
            "Comments": ""
        },
        {
            "Action": "Example added",
            "Group": "IRDX",
            "Heading": "IRDX_REM",
            "Comments": ""
        },
        {
            "Action": "Example added",
            "Group": "IRES",
            "Heading": "IRES_REM",
            "Comments": ""
        },
        {
            "Action": "Example added",
            "Group": "ISAT",
            "Heading": "ISAT_REM",
            "Comments": ""
        },
        {
            "Action": "Example added",
            "Group": "IVAN",
            "Heading": "IVAN_REM",
            "Comments": ""
        },
        {
            "Action": "Example added",
            "Group": "LBSG",
            "Heading": "LBSG_REM",
            "Comments": ""
        },
        {
            "Action": "Example added",
            "Group": "LBST",
            "Heading": "LBST_REM",
            "Comments": ""
        },
        {
            "Action": "Example added",
            "Group": "LDEN",
            "Heading": "LDEN_REM",
            "Comments": ""
        },
        {
            "Action": "Example added",
            "Group": "LDYN",
            "Heading": "LDYN_DEV",
            "Comments": ""
        },
        {
            "Action": "Example added",
            "Group": "LDYN",
            "Heading": "LDYN_REM",
            "Comments": ""
        },
        {
            "Action": "Example added",
            "Group": "LFCN",
            "Heading": "LFCN_DEV",
            "Comments": ""
        },
        {
            "Action": "Example added",
            "Group": "LFCN",
            "Heading": "LFCN_REM",
            "Comments": ""
        },
        {
            "Action": "Example added",
            "Group": "LLIN",
            "Heading": "LLIN_DEV",
            "Comments": ""
        },
        {
            "Action": "Example added",
            "Group": "LLIN",
            "Heading": "LLIN_REM",
            "Comments": ""
        },
        {
            "Action": "Example added",
            "Group": "LLPL",
            "Heading": "LLPL_DEV",
            "Comments": ""
        },
        {
            "Action": "Example added",
            "Group": "LNMC",
            "Heading": "LNMC_DEV",
            "Comments": ""
        },
        {
            "Action": "Example added",
            "Group": "LNMC",
            "Heading": "LNMC_REM",
            "Comments": ""
        },
        {
            "Action": "Example added",
            "Group": "LOCA",
            "Heading": "LOCA_REM",
            "Comments": ""
        },
        {
            "Action": "Example added",
            "Group": "LPEN",
            "Heading": "LPEN_DEV",
            "Comments": ""
        },
        {
            "Action": "Example added",
            "Group": "LRES",
            "Heading": "LRES_DEV",
            "Comments": ""
        },
        {
            "Action": "Example added",
            "Group": "LRES",
            "Heading": "LRES_REM",
            "Comments": ""
        },
        {
            "Action": "Example added",
            "Group": "LSLT",
            "Heading": "LSLT_DEV",
            "Comments": ""
        },
        {
            "Action": "Example added",
            "Group": "LSLT",
            "Heading": "LSLT_REM",
            "Comments": ""
        },
        {
            "Action": "Example added",
            "Group": "LSTG",
            "Heading": "LSTG_DEV",
            "Comments": ""
        },
        {
            "Action": "Example added",
            "Group": "LSTG",
            "Heading": "LSTG_REM",
            "Comments": ""
        },
        {
            "Action": "Example added",
            "Group": "LSTT",
            "Heading": "LSTT_REM",
            "Comments": ""
        },
        {
            "Action": "Example added",
            "Group": "LSWL",
            "Heading": "LSWL_DEV",
            "Comments": ""
        },
        {
            "Action": "Example added",
            "Group": "LSWL",
            "Heading": "LSWL_REM",
            "Comments": ""
        },
        {
            "Action": "Example added",
            "Group": "LTCH",
            "Heading": "LTCH_DEV",
            "Comments": ""
        },
        {
            "Action": "Example added",
            "Group": "LUCT",
            "Heading": "LUCT_DEV",
            "Comments": ""
        },
        {
            "Action": "Example added",
            "Group": "LUCT",
            "Heading": "LUCT_REM",
            "Comments": ""
        },
        {
            "Action": "Example added",
            "Group": "LVAN",
            "Heading": "LVAN_DEV",
            "Comments": ""
        },
        {
            "Action": "Example added",
            "Group": "MCVG",
            "Heading": "MCVG_DEV",
            "Comments": ""
        },
        {
            "Action": "Example added",
            "Group": "MCVG",
            "Heading": "MCVG_REM",
            "Comments": ""
        },
        {
            "Action": "Example added",
            "Group": "MCVT",
            "Heading": "MCVT_REM",
            "Comments": ""
        },
        {
            "Action": "Example added",
            "Group": "MOND",
            "Heading": "MOND_REM",
            "Comments": ""
        },
        {
            "Action": "Example added",
            "Group": "PIPE",
            "Heading": "PIPE_REM",
            "Comments": ""
        },
        {
            "Action": "Example added",
            "Group": "PLTG",
            "Heading": "PLTG_REM",
            "Comments": ""
        },
        {
            "Action": "Example added",
            "Group": "PLTT",
            "Heading": "PLTT_REM",
            "Comments": ""
        },
        {
            "Action": "Example added",
            "Group": "PMTD",
            "Heading": "PMTD_REM",
            "Comments": ""
        },
        {
            "Action": "Example added",
            "Group": "PMTL",
            "Heading": "PMTL_REM",
            "Comments": ""
        },
        {
            "Action": "Example added",
            "Group": "PTST",
            "Heading": "PTST_DEV",
            "Comments": ""
        },
        {
            "Action": "Example added",
            "Group": "PTST",
            "Heading": "PTST_REM",
            "Comments": ""
        },
        {
            "Action": "Example added",
            "Group": "PUMT",
            "Heading": "PUMT_REM",
            "Comments": ""
        },
        {
            "Action": "Example added",
            "Group": "RCAG",
            "Heading": "RCAG_DEV",
            "Comments": ""
        },
        {
            "Action": "Example added",
            "Group": "RCAT",
            "Heading": "RCAT_REM",
            "Comments": ""
        },
        {
            "Action": "Example added",
            "Group": "RCCV",
            "Heading": "RCCV_DEV",
            "Comments": ""
        },
        {
            "Action": "Example added",
            "Group": "RCCV",
            "Heading": "RCCV_REM",
            "Comments": ""
        },
        {
            "Action": "Example added",
            "Group": "RDEN",
            "Heading": "RDEN_DEV",
            "Comments": ""
        },
        {
            "Action": "Example added",
            "Group": "RELD",
            "Heading": "RELD_DEV",
            "Comments": ""
        },
        {
            "Action": "Example added",
            "Group": "RESC",
            "Heading": "RESC_REM",
            "Comments": ""
        },
        {
            "Action": "Example added",
            "Group": "RESD",
            "Heading": "RESD_REM",
            "Comments": ""
        },
        {
            "Action": "Example added",
            "Group": "RESG",
            "Heading": "RESG_DEV",
            "Comments": ""
        },
        {
            "Action": "Example added",
            "Group": "RESG",
            "Heading": "RESG_REM",
            "Comments": ""
        },
        {
            "Action": "Example added",
            "Group": "RESP",
            "Heading": "RESP_REM",
            "Comments": ""
        },
        {
            "Action": "Example added",
            "Group": "RESS",
            "Heading": "RESS_REM",
            "Comments": ""
        },
        {
            "Action": "Example added",
            "Group": "RPLT",
            "Heading": "RPLT_DEV",
            "Comments": ""
        },
        {
            "Action": "Example added",
            "Group": "RSCH",
            "Heading": "RSCH_DEV",
            "Comments": ""
        },
        {
            "Action": "Example added",
            "Group": "RSCH",
            "Heading": "RSCH_REM",
            "Comments": ""
        },
        {
            "Action": "Example added",
            "Group": "RSHR",
            "Heading": "RSHR_DEV",
            "Comments": ""
        },
        {
            "Action": "Example added",
            "Group": "RSHR",
            "Heading": "RSHR_REM",
            "Comments": ""
        },
        {
            "Action": "Example added",
            "Group": "RTEN",
            "Heading": "RTEN_DEV",
            "Comments": ""
        },
        {
            "Action": "Example added",
            "Group": "RUCS",
            "Heading": "RUCS_DEV",
            "Comments": ""
        },
        {
            "Action": "Example added",
            "Group": "RWCO",
            "Heading": "RWCO_DEV",
            "Comments": ""
        },
        {
            "Action": "Example added",
            "Group": "RWCO",
            "Heading": "RWCO_REM",
            "Comments": ""
        },
        {
            "Action": "Example added",
            "Group": "SAMP",
            "Heading": "SAMP_REM",
            "Comments": ""
        },
        {
            "Action": "Example added",
            "Group": "SCDG",
            "Heading": "SCDG_REM",
            "Comments": ""
        },
        {
            "Action": "Example added",
            "Group": "SCDT",
            "Heading": "SCDT_REM",
            "Comments": ""
        },
        {
            "Action": "Example added",
            "Group": "SCPG",
            "Heading": "SCPG_REM",
            "Comments": ""
        },
        {
            "Action": "Example added",
            "Group": "SCPP",
            "Heading": "SCPP_REM",
            "Comments": ""
        },
        {
            "Action": "Example added",
            "Group": "SCPT",
            "Heading": "SCPT_REM",
            "Comments": ""
        },
        {
            "Action": "Example added",
            "Group": "SHBG",
            "Heading": "SHBG_DEV",
            "Comments": ""
        },
        {
            "Action": "Example added",
            "Group": "STND",
            "Heading": "STND_REM",
            "Comments": ""
        },
        {
            "Action": "Example added",
            "Group": "SUCT",
            "Heading": "SUCT_DEV",
            "Comments": ""
        },
        {
            "Action": "Example added",
            "Group": "SUCT",
            "Heading": "SUCT_REM",
            "Comments": ""
        },
        {
            "Action": "Example added",
            "Group": "TNPC",
            "Heading": "TNPC_DEV",
            "Comments": ""
        },
        {
            "Action": "Example added",
            "Group": "TNPC",
            "Heading": "TNPC_REM",
            "Comments": ""
        },
        {
            "Action": "Example added",
            "Group": "TRAN",
            "Heading": "TRAN_REM",
            "Comments": ""
        },
        {
            "Action": "Example added",
            "Group": "TREG",
            "Heading": "TREG_DEV",
            "Comments": ""
        },
        {
            "Action": "Example added",
            "Group": "TRET",
            "Heading": "TRET_REM",
            "Comments": ""
        },
        {
            "Action": "Example added",
            "Group": "TRIG",
            "Heading": "TRIG_DEV",
            "Comments": ""
        },
        {
            "Action": "Example added",
            "Group": "TRIG",
            "Heading": "TRIG_REM",
            "Comments": ""
        },
        {
            "Action": "Example added",
            "Group": "TRIT",
            "Heading": "TRIT_REM",
            "Comments": ""
        },
        {
            "Action": "Example added",
            "Group": "UNIT",
            "Heading": "UNIT_REM",
            "Comments": ""
        },
        {
            "Action": "Example added",
            "Group": "WADD",
            "Heading": "WADD_REM",
            "Comments": ""
        },
        {
            "Action": "Example added",
            "Group": "WETH",
            "Heading": "WETH_REM",
            "Comments": ""
        },
        {
            "Action": "Example added",
            "Group": "WGPG",
            "Heading": "WGPG_REM",
            "Comments": ""
        },
        {
            "Action": "Example added",
            "Group": "WGPT",
            "Heading": "WGPT_REM",
            "Comments": ""
        },
        {
            "Action": "Example added",
            "Group": "WINS",
            "Heading": "WINS_REM",
            "Comments": ""
        },
        {
            "Action": "Example added",
            "Group": "WSTD",
            "Heading": "WSTD_REM",
            "Comments": ""
        },
        {
            "Action": "Example change",
            "Group": "ASNS",
            "Heading": "ASNS_METH",
            "Comments": "\"BS 812-121:1989 - Magnesium Sulfate \" to \"BS 812-121:1989 - Magnesium Sulfate\" "
        },
        {
            "Action": "Example change",
            "Group": "CBRG",
            "Heading": "CBRG_NMC",
            "Comments": "\"16.4\" to \"16\""
        },
        {
            "Action": "Example change",
            "Group": "CBRG",
            "Heading": "SPEC_PREP",
            "Comments": "\"Stored at constant water/moisture content for 7 days, then soaked for 7 days, maintained at 20°C throughout\" to \"Stored at constant water/moisture content for 7 days, then soaked for 7 days, maintained at 20 +/- 2°C throughout\""
        },
        {
            "Action": "Example change",
            "Group": "CBRT",
            "Heading": "CBRT_MCBT",
            "Comments": "\"14.2\" to \"14\""
        },
        {
            "Action": "Example change",
            "Group": "CBRT",
            "Heading": "CBRT_MCT",
            "Comments": "\"15.1\" to \"15\""
        },
        {
            "Action": "Example change",
            "Group": "CBRT",
            "Heading": "CBRT_IMC",
            "Comments": "\"21.3\" to \"21\""
        },
        {
            "Action": "Example change",
            "Group": "CMPG",
            "Heading": "CMPG_MOLD",
            "Comments": "\"1 litre\" to \"1 LITRE\""
        },
        {
            "Action": "Example change",
            "Group": "CMPG",
            "Heading": "CMPG_TYPE",
            "Comments": "\"2.5kg \" to \"2.5KG\""
        },
        {
            "Action": "Example change",
            "Group": "CMPG",
            "Heading": "SPEC_PREP",
            "Comments": "\"Stored at constant water/moisture content for 7 days, then soaked for 7 days, maintained at 20°C throughout\" to \"Stored at constant water/moisture content for 7 days, then soaked for 7 days, maintained at 20 +/- 2°C throughout\""
        },
        {
            "Action": "Example change",
            "Group": "CMPT",
            "Heading": "CMPT_DDEN",
            "Comments": "\"Dry density at CMPT_MC moisture content\"\" to \"Dry density at CMPT_MC water/moisture content\""
        },
        {
            "Action": "Example change",
            "Group": "CONG",
            "Heading": "CONG_MCF",
            "Comments": "\"18.8\" to \"19\""
        },
        {
            "Action": "Example change",
            "Group": "CONG",
            "Heading": "CONG_MCI",
            "Comments": "\"21.1\" to \"21\""
        },
        {
            "Action": "Example change",
            "Group": "CTRD",
            "Heading": "CTRD_DEV",
            "Comments": "\"80.2 \" to \"80.2\""
        },
        {
            "Action": "Example change",
            "Group": "CTRG",
            "Heading": "CTRG_TYPE",
            "Comments": "\"CAUc\\CIUc\" to \"CAUC\""
        },
        {
            "Action": "Example change",
            "Group": "CTRP",
            "Heading": "CTRP_MNSS",
            "Comments": "\"110.2 \" to \"110.2\""
        },
        {
            "Action": "Example change",
            "Group": "CTRP",
            "Heading": "CTRP_CYC",
            "Comments": "\"5\" to \"2\""
        },
        {
            "Action": "Example change",
            "Group": "DCPG",
            "Heading": "DCPG_METH",
            "Comments": "\"DMRB HD29/08 Section 7.27\" to \"DMRB CS 229\""
        },
        {
            "Action": "Example change",
            "Group": "DISC",
            "Heading": "DISC_TERM",
            "Comments": "\"XR \" to \"X\""
        },
        {
            "Action": "Example change",
            "Group": "ELRG",
            "Heading": "ELRG_LMTH",
            "Comments": "\"\" to \"10:1\""
        },
        {
            "Action": "Example change",
            "Group": "ELRG",
            "Heading": "ELRG_CASC",
            "Comments": "\"\" to \"7782-44-7\""
        },
        {
            "Action": "Example change",
            "Group": "ELRG",
            "Heading": "ELRG_SIZE",
            "Comments": "\"2.1\" to \"2\""
        },
        {
            "Action": "Example change",
            "Group": "ELRG",
            "Heading": "TEST_STAT",
            "Comments": "\"COMPLETE\" to \"Checked\""
        },
        {
            "Action": "Example change",
            "Group": "ELRG",
            "Heading": "FILE_FSET",
            "Comments": "\"FS10\" to \"FS13\""
        },
        {
            "Action": "Example change",
            "Group": "ELRG",
            "Heading": "SAMP_TYPE",
            "Comments": "\"U\" to \"ES\""
        },
        {
            "Action": "Example change",
            "Group": "ESCG",
            "Heading": "ESCG_MCF",
            "Comments": "\"18.6\" to \"19\""
        },
        {
            "Action": "Example change",
            "Group": "ESCG",
            "Heading": "ESCG_MCI",
            "Comments": "\"21.2\" to \"21\""
        },
        {
            "Action": "Example change",
            "Group": "ESCT",
            "Heading": "ESCT_INK",
            "Comments": "\"0.0000000093\" to \"9.3E-9\""
        },
        {
            "Action": "Example change",
            "Group": "FGHG",
            "Heading": "FGHG_IPRM",
            "Comments": "\"0.0000000051\" to \"5.1E-9\""
        },
        {
            "Action": "Example change",
            "Group": "FGHG",
            "Heading": "FGHG_TYPE",
            "Comments": "\"Constant\" to \"CONSTANT HEAD\""
        },
        {
            "Action": "Example change",
            "Group": "FGHG",
            "Heading": "FGHG_CNFG",
            "Comments": "\"SP\" to \"STANDPIPE\""
        },
        {
            "Action": "Example change",
            "Group": "FGHI",
            "Heading": "FGHI_INST",
            "Comments": "\"327-16A\" to \"P1\""
        },
        {
            "Action": "Example change",
            "Group": "FGHS",
            "Heading": "FGHS_IPRM",
            "Comments": "\"0.0000000051\" to \"5.1E-9\""
        },
        {
            "Action": "Example change",
            "Group": "FGHT",
            "Heading": "FGHT_DURN",
            "Comments": "\"0.0555555556\" to \"01:20:00\""
        },
        {
            "Action": "Example change",
            "Group": "FGHT",
            "Heading": "FGHI_INST",
            "Comments": "\"327-16A\" to \"P1\""
        },
        {
            "Action": "Example change",
            "Group": "FGHT",
            "Heading": "FGHT_UNIT",
            "Comments": "\"m\" to \"kPa\""
        },
        {
            "Action": "Example change",
            "Group": "GCHM",
            "Heading": "GCHM_SGRP",
            "Comments": "\"\" to \"ABC123\""
        },
        {
            "Action": "Example change",
            "Group": "IDEN",
            "Heading": "IDEN_MC",
            "Comments": "\"18.0\" to \"18\""
        },
        {
            "Action": "Example change",
            "Group": "IDEN",
            "Heading": "IDEN_TYPE",
            "Comments": "\"Core\" to \"CORE\""
        },
        {
            "Action": "Example change",
            "Group": "IPID",
            "Heading": "IPID_RES",
            "Comments": "\"10.00\" to \"10\""
        },
        {
            "Action": "Example change",
            "Group": "IPRG",
            "Heading": "IPRG_IPRM",
            "Comments": "\"5.1E-9\" to \"5.1E-09\""
        },
        {
            "Action": "Example change",
            "Group": "IPRG",
            "Heading": "IPRG_METH",
            "Comments": "\"BS5930\" to \"BS 5930\""
        },
        {
            "Action": "Example change",
            "Group": "LFCN",
            "Heading": "LFCN_FCRM",
            "Comments": "\"\" to \"5.2\""
        },
        {
            "Action": "Example change",
            "Group": "LFCN",
            "Heading": "FILE_FSET",
            "Comments": "\"FS10\" to \"FS7\""
        },
        {
            "Action": "Example change",
            "Group": "LFCN",
            "Heading": "SPEC_DESC",
            "Comments": "\"Grey slightly gravelly clay\" to \"Brown sandstone\""
        },
        {
            "Action": "Example change",
            "Group": "LPEN",
            "Heading": "LPEN_MC",
            "Comments": "\"23.7\" to \"24\""
        },
        {
            "Action": "Example change",
            "Group": "LRES",
            "Heading": "LRES_MC",
            "Comments": "\"15.2\" to \"15\""
        },
        {
            "Action": "Example change",
            "Group": "LTCH",
            "Heading": "FILE_FSET",
            "Comments": "\"FS26\" to \"FS7\""
        },
        {
            "Action": "Example change",
            "Group": "LTCH",
            "Heading": "LTCH_COND",
            "Comments": "\"Undisturbed, remoulded\" to \"UNDISTURBED\""
        },
        {
            "Action": "Example change",
            "Group": "LVAN",
            "Heading": "LVAN_MC",
            "Comments": "\"57.9\" to \"58\""
        },
        {
            "Action": "Example change",
            "Group": "LVAN",
            "Heading": "LVAN_TYPE",
            "Comments": "\"LV\" to \"HV\""
        },
        {
            "Action": "Example change",
            "Group": "MCVG",
            "Heading": "SPEC_PREP",
            "Comments": "\"Stored at constant water/moisture content for 7 days, then soaked for 7 days, maintained at 20°C throughout\" to \"Stored at constant water/moisture content for 7 days, then soaked for 7 days, maintained at 20 +/- 2°C throughout\""
        },
        {
            "Action": "Example change",
            "Group": "MCVT",
            "Heading": "MCVT_MC",
            "Comments": "\"17.7\" to \"18\""
        },
        {
            "Action": "Example change",
            "Group": "PMTG",
            "Heading": "PMTG_ORNT",
            "Comments": "\"015\" to \"15\""
        },
        {
            "Action": "Example change",
            "Group": "PTST",
            "Heading": "PTST_K",
            "Comments": "\"4.1E-6\" to \"4.1E-06\""
        },
        {
            "Action": "Example change",
            "Group": "RCAG",
            "Heading": "RCAG_REM",
            "Comments": "\"45° relative to axis, Tests carried out at prevailing surface unless annotated otherwise.\" to \"45deg relative to axis, Tests carried out at prevailing surface unless annotated otherwise.\""
        },
        {
            "Action": "Example change",
            "Group": "RESG",
            "Heading": "SAMP_TOP",
            "Comments": "\"10\" to \"10.00\""
        },
        {
            "Action": "Example change",
            "Group": "RESP",
            "Heading": "SAMP_TOP",
            "Comments": "\"10\" to \"10.00\""
        },
        {
            "Action": "Example change",
            "Group": "RESS",
            "Heading": "SAMP_TOP",
            "Comments": "\"10\" to \"10.00\""
        },
        {
            "Action": "Example change",
            "Group": "RPLT",
            "Heading": "RPLT_PLS",
            "Comments": "\"2.3\" to \"2.30\""
        },
        {
            "Action": "Example change",
            "Group": "RPLT",
            "Heading": "RPLT_PLSI",
            "Comments": "\"2.5\" to \"2.50\""
        },
        {
            "Action": "Example change",
            "Group": "RSCH",
            "Heading": "RSCH_HTYP",
            "Comments": "\"L-TYPE\" to \"L\""
        },
        {
            "Action": "Example change",
            "Group": "RUCS",
            "Heading": "RUCS_ETYP",
            "Comments": "\"Secant\" to \"SECANT\""
        },
        {
            "Action": "Example change",
            "Group": "SAMP",
            "Heading": "SAMP_DURN",
            "Comments": "\"30:15:00\" to \"06:15:00\""
        },
        {
            "Action": "Example change",
            "Group": "SAMP",
            "Heading": "SAMP_LINK",
            "Comments": "\"MONG|BH1|Pipe1\" to \"MONG|BH1|Pipe1|2.30\""
        },
        {
            "Action": "Example change",
            "Group": "SCDG",
            "Heading": "SCDG_CVMT",
            "Comments": "\"\" to \"C_h x 5\""
        },
        {
            "Action": "Example change",
            "Group": "SCDG",
            "Heading": "SCDG_CV",
            "Comments": "\"1.33E1\" to \"1.33E+01\""
        },
        {
            "Action": "Example change",
            "Group": "SCDG",
            "Heading": "SCDG_DPTH",
            "Comments": "\"5.205\" to \"5.21\""
        },
        {
            "Action": "Example change",
            "Group": "SCDG",
            "Heading": "SCDG_CH",
            "Comments": "\"8.64E-6\" to \"8.64E-06\""
        },
        {
            "Action": "Example change",
            "Group": "SCDT",
            "Heading": "SCDG_DPTH",
            "Comments": "\"5.205\" to \"5.21\""
        },
        {
            "Action": "Example change",
            "Group": "SCPP",
            "Heading": "SCPP_CSU",
            "Comments": "\"\" to \"50.2\""
        },
        {
            "Action": "Example change",
            "Group": "SCPT",
            "Heading": "SCPT_DPTH",
            "Comments": "\"7.12\" to \"7.13\""
        },
        {
            "Action": "Example change",
            "Group": "TRAN",
            "Heading": "TRAN_AGS",
            "Comments": "\"4.0\" to \"4.1\""
        },
        {
            "Action": "Example change",
            "Group": "TRET",
            "Heading": "TRET_FMC",
            "Comments": "\"14.9\" to \"15\""
        },
        {
            "Action": "Example change",
            "Group": "TRET",
            "Heading": "TRET_IMC",
            "Comments": "\"15.5\" to \"16\""
        },
        {
            "Action": "Example change",
            "Group": "TRET",
            "Heading": "TRET_E50",
            "Comments": "\"75.50\" to \"75.5\""
        },
        {
            "Action": "Example change",
            "Group": "TRIT",
            "Heading": "TRIT_FMC",
            "Comments": "\"14.9\" to \"15\""
        },
        {
            "Action": "Example change",
            "Group": "TRIT",
            "Heading": "TRIT_IMC",
            "Comments": "\"15.7\" to \"16\""
        },
        {
            "Action": "Example change",
            "Group": "TRIT",
            "Heading": "SPEC_DPTH",
            "Comments": "\"24.75\" to \"24.55\""
        },
        {
            "Action": "Example change",
            "Group": "UNIT",
            "Heading": "UNIT_UNIT",
            "Comments": "\"Ohm m\" to \"ohm m\""
        },
        {
            "Action": "Example change",
            "Group": "UNIT",
            "Heading": "UNIT_DESC",
            "Comments": "\"Ohm metres\" to \"ohm metres\""
        },
        {
            "Action": "Example change",
            "Group": "WGPG",
            "Heading": "WGPG_ID",
            "Comments": "\"BH01-Pass01\" to \"327-16A -Pass01\""
        },
        {
            "Action": "Example change",
            "Group": "WGPG",
            "Heading": "WGPT_PARA",
            "Comments": "\"OBI_EAST\" to \"OBI-EAST\""
        },
        {
            "Action": "Example change",
            "Group": "WGPT",
            "Heading": "WGPG_ID",
            "Comments": "\"BH01-Pass01\" to \"327-16A -Pass01\""
        },
        {
            "Action": "Miscellaneous",
            "Group": "LTCH",
            "Heading": "LTCH_LAB",
            "Comments": "Incorrectly shown on website as LTCH_CONT"
        },
        {
            "Action": "Miscellaneous",
            "Group": "ASNS",
            "Heading": "ASNS_DEV",
            "Comments": "Heading missing from website"
        },
        {
            "Action": "Miscellaneous",
            "Group": "AWAD",
            "Heading": "AWAD_DEV",
            "Comments": "Heading missing from website"
        },
        {
            "Action": "Miscellaneous",
            "Group": "CONG",
            "Heading": "SPEC_BASE",
            "Comments": "Heading missing from website"
        },
        {
            "Action": "Miscellaneous",
            "Group": "CTRD",
            "Heading": "CTRD_REM",
            "Comments": "Website display order incorrect"
        },
        {
            "Action": "Miscellaneous",
            "Group": "CTRD",
            "Heading": "FILE_FSET",
            "Comments": "Website display order incorrect"
        },
        {
            "Action": "Miscellaneous",
            "Group": "CTRP",
            "Heading": "CTRP_DIPL",
            "Comments": "Heading missing from website"
        },
        {
            "Action": "Miscellaneous",
            "Group": "CTRP",
            "Heading": "CTRP_MODE",
            "Comments": "Heading missing from website"
        },
        {
            "Action": "Miscellaneous",
            "Group": "CTRP",
            "Heading": "FILE_FSET",
            "Comments": "Heading missing from website"
        },
        {
            "Action": "Miscellaneous",
            "Group": "ELRG",
            "Heading": "ELRG_BAS",
            "Comments": "Website display order incorrect"
        },
        {
            "Action": "Miscellaneous",
            "Group": "ELRG",
            "Heading": "ELRG_CASC",
            "Comments": "Website display order incorrect"
        },
        {
            "Action": "Miscellaneous",
            "Group": "ELRG",
            "Heading": "ELRG_CRED",
            "Comments": "Website display order incorrect"
        },
        {
            "Action": "Miscellaneous",
            "Group": "ELRG",
            "Heading": "ELRG_DCAT",
            "Comments": "Website display order incorrect"
        },
        {
            "Action": "Miscellaneous",
            "Group": "ELRG",
            "Heading": "ELRG_DETF",
            "Comments": "Website display order incorrect"
        },
        {
            "Action": "Miscellaneous",
            "Group": "ELRG",
            "Heading": "ELRG_DEV",
            "Comments": "Website display order incorrect"
        },
        {
            "Action": "Miscellaneous",
            "Group": "ELRG",
            "Heading": "ELRG_DIL",
            "Comments": "Website display order incorrect"
        },
        {
            "Action": "Miscellaneous",
            "Group": "ELRG",
            "Heading": "ELRG_DTIM",
            "Comments": "Website display order incorrect"
        },
        {
            "Action": "Miscellaneous",
            "Group": "ELRG",
            "Heading": "ELRG_DUNI",
            "Comments": "Website display order incorrect"
        },
        {
            "Action": "Miscellaneous",
            "Group": "ELRG",
            "Heading": "ELRG_FDEV",
            "Comments": "Website display order incorrect"
        },
        {
            "Action": "Miscellaneous",
            "Group": "ELRG",
            "Heading": "ELRG_IQLF",
            "Comments": "Website display order incorrect"
        },
        {
            "Action": "Miscellaneous",
            "Group": "ELRG",
            "Heading": "ELRG_IREF",
            "Comments": "Website display order incorrect"
        },
        {
            "Action": "Miscellaneous",
            "Group": "ELRG",
            "Heading": "ELRG_ITYP",
            "Comments": "Website display order incorrect"
        },
        {
            "Action": "Miscellaneous",
            "Group": "ELRG",
            "Heading": "ELRG_LAB",
            "Comments": "Website display order incorrect"
        },
        {
            "Action": "Miscellaneous",
            "Group": "ELRG",
            "Heading": "ELRG_LDTM",
            "Comments": "Website display order incorrect"
        },
        {
            "Action": "Miscellaneous",
            "Group": "ELRG",
            "Heading": "ELRG_LMTH",
            "Comments": "Website display order incorrect"
        },
        {
            "Action": "Miscellaneous",
            "Group": "ELRG",
            "Heading": "ELRG_LOCN",
            "Comments": "Website display order incorrect"
        },
        {
            "Action": "Miscellaneous",
            "Group": "ELRG",
            "Heading": "ELRG_LQLF",
            "Comments": "Website display order incorrect"
        },
        {
            "Action": "Miscellaneous",
            "Group": "ELRG",
            "Heading": "ELRG_LSID",
            "Comments": "Website display order incorrect"
        },
        {
            "Action": "Miscellaneous",
            "Group": "ELRG",
            "Heading": "ELRG_MDLM",
            "Comments": "Website display order incorrect"
        },
        {
            "Action": "Miscellaneous",
            "Group": "ELRG",
            "Heading": "ELRG_NAME",
            "Comments": "Website display order incorrect"
        },
        {
            "Action": "Miscellaneous",
            "Group": "ELRG",
            "Heading": "ELRG_ORG",
            "Comments": "Website display order incorrect"
        },
        {
            "Action": "Miscellaneous",
            "Group": "ELRG",
            "Heading": "ELRG_PERP",
            "Comments": "Website display order incorrect"
        },
        {
            "Action": "Miscellaneous",
            "Group": "ELRG",
            "Heading": "ELRG_QLM",
            "Comments": "Website display order incorrect"
        },
        {
            "Action": "Miscellaneous",
            "Group": "ELRG",
            "Heading": "ELRG_RDAT",
            "Comments": "Website display order incorrect"
        },
        {
            "Action": "Miscellaneous",
            "Group": "ELRG",
            "Heading": "ELRG_RDLM",
            "Comments": "Website display order incorrect"
        },
        {
            "Action": "Miscellaneous",
            "Group": "ELRG",
            "Heading": "ELRG_REM",
            "Comments": "Website display order incorrect"
        },
        {
            "Action": "Miscellaneous",
            "Group": "ELRG",
            "Heading": "ELRG_RRES",
            "Comments": "Website display order incorrect"
        },
        {
            "Action": "Miscellaneous",
            "Group": "ELRG",
            "Heading": "ELRG_RTCD",
            "Comments": "Website display order incorrect"
        },
        {
            "Action": "Miscellaneous",
            "Group": "ELRG",
            "Heading": "ELRG_RTXT",
            "Comments": "Website display order incorrect"
        },
        {
            "Action": "Miscellaneous",
            "Group": "ELRG",
            "Heading": "ELRG_RVAL",
            "Comments": "Website display order incorrect"
        },
        {
            "Action": "Miscellaneous",
            "Group": "ELRG",
            "Heading": "ELRG_SGRP",
            "Comments": "Website display order incorrect"
        },
        {
            "Action": "Miscellaneous",
            "Group": "ELRG",
            "Heading": "ELRG_SIZE",
            "Comments": "Website display order incorrect"
        },
        {
            "Action": "Miscellaneous",
            "Group": "ELRG",
            "Heading": "ELRG_TESN",
            "Comments": "Website display order incorrect"
        },
        {
            "Action": "Miscellaneous",
            "Group": "ELRG",
            "Heading": "ELRG_TEST",
            "Comments": "Website display order incorrect"
        },
        {
            "Action": "Miscellaneous",
            "Group": "ELRG",
            "Heading": "ELRG_TICP",
            "Comments": "Website display order incorrect"
        },
        {
            "Action": "Miscellaneous",
            "Group": "ELRG",
            "Heading": "ELRG_TICT",
            "Comments": "Website display order incorrect"
        },
        {
            "Action": "Miscellaneous",
            "Group": "ELRG",
            "Heading": "ELRG_TNAM",
            "Comments": "Website display order incorrect"
        },
        {
            "Action": "Miscellaneous",
            "Group": "ELRG",
            "Heading": "ELRG_TORD",
            "Comments": "Website display order incorrect"
        },
        {
            "Action": "Miscellaneous",
            "Group": "ELRG",
            "Heading": "FILE_FSET",
            "Comments": "Website display order incorrect"
        },
        {
            "Action": "Miscellaneous",
            "Group": "ELRG",
            "Heading": "SPEC_BASE",
            "Comments": "Website display order incorrect"
        },
        {
            "Action": "Miscellaneous",
            "Group": "ELRG",
            "Heading": "SPEC_DESC",
            "Comments": "Website display order incorrect"
        },
        {
            "Action": "Miscellaneous",
            "Group": "ELRG",
            "Heading": "SPEC_PREP",
            "Comments": "Website display order incorrect"
        },
        {
            "Action": "Miscellaneous",
            "Group": "ELRG",
            "Heading": "TEST_STAT",
            "Comments": "Website display order incorrect"
        },
        {
            "Action": "Miscellaneous",
            "Group": "ESCG",
            "Heading": "ESCG_DEV",
            "Comments": "Website display order incorrect"
        },
        {
            "Action": "Miscellaneous",
            "Group": "ESCG",
            "Heading": "FILE_FSET",
            "Comments": "Website display order incorrect"
        },
        {
            "Action": "Miscellaneous",
            "Group": "ESCG",
            "Heading": "SPEC_BASE",
            "Comments": "Website display order incorrect"
        },
        {
            "Action": "Miscellaneous",
            "Group": "ESCG",
            "Heading": "TEST_STAT",
            "Comments": "Website display order incorrect"
        },
        {
            "Action": "Miscellaneous",
            "Group": "GCHM",
            "Heading": "GCHM_PERP",
            "Comments": "Heading missing from website"
        },
        {
            "Action": "Miscellaneous",
            "Group": "GCHM",
            "Heading": "GCHM_SIZE",
            "Comments": "Heading missing from website"
        },
        {
            "Action": "Miscellaneous",
            "Group": "LDYN",
            "Heading": "SPEC_BASE",
            "Comments": "Heading missing from website"
        },
        {
            "Action": "Miscellaneous",
            "Group": "LFCN",
            "Heading": "FILE_FSET",
            "Comments": "Website display order incorrect"
        },
        {
            "Action": "Miscellaneous",
            "Group": "LFCN",
            "Heading": "LFCN_CRED",
            "Comments": "Website display order incorrect"
        },
        {
            "Action": "Miscellaneous",
            "Group": "LFCN",
            "Heading": "LFCN_LAB",
            "Comments": "Website display order incorrect"
        },
        {
            "Action": "Miscellaneous",
            "Group": "LFCN",
            "Heading": "TEST_STAT",
            "Comments": "Website display order incorrect"
        },
        {
            "Action": "Miscellaneous",
            "Group": "LTCH",
            "Heading": "LTCH_BDEN",
            "Comments": "Website display order incorrect"
        },
        {
            "Action": "Miscellaneous",
            "Group": "LTCH",
            "Heading": "LTCH_COND",
            "Comments": "Website display order incorrect"
        },
        {
            "Action": "Miscellaneous",
            "Group": "LTCH",
            "Heading": "LTCH_DDEN",
            "Comments": "Website display order incorrect"
        },
        {
            "Action": "Miscellaneous",
            "Group": "LTCH",
            "Heading": "LTCH_DEV",
            "Comments": "Website display order incorrect"
        },
        {
            "Action": "Miscellaneous",
            "Group": "LTCH",
            "Heading": "LTCH_MC",
            "Comments": "Website display order incorrect"
        },
        {
            "Action": "Miscellaneous",
            "Group": "LTCH",
            "Heading": "LTCH_PART",
            "Comments": "Website display order incorrect"
        },
        {
            "Action": "Miscellaneous",
            "Group": "LTCH",
            "Heading": "LTCH_PDIA",
            "Comments": "Website display order incorrect"
        },
        {
            "Action": "Miscellaneous",
            "Group": "LTCH",
            "Heading": "LTCH_PPEN",
            "Comments": "Website display order incorrect"
        },
        {
            "Action": "Miscellaneous",
            "Group": "LTCH",
            "Heading": "LTCH_PRBE",
            "Comments": "Website display order incorrect"
        },
        {
            "Action": "Miscellaneous",
            "Group": "LTCH",
            "Heading": "LTCH_PSPA",
            "Comments": "Website display order incorrect"
        },
        {
            "Action": "Miscellaneous",
            "Group": "LTCH",
            "Heading": "LTCH_TCON",
            "Comments": "Website display order incorrect"
        },
        {
            "Action": "Miscellaneous",
            "Group": "LTCH",
            "Heading": "LTCH_TEMP",
            "Comments": "Website display order incorrect"
        },
        {
            "Action": "Miscellaneous",
            "Group": "LTCH",
            "Heading": "LTCH_TRES",
            "Comments": "Website display order incorrect"
        },
        {
            "Action": "Miscellaneous",
            "Group": "RESG",
            "Heading": "SPEC_DESC",
            "Comments": "Website display order incorrect"
        },
        {
            "Action": "Miscellaneous",
            "Group": "SHBG",
            "Heading": "SPEC_BASE",
            "Comments": "Heading missing from website"
        },
        {
            "Action": "Miscellaneous",
            "Group": "SHBG",
            "Heading": "SHBG_DEV",
            "Comments": "Website display order incorrect"
        },
        {
            "Action": "Miscellaneous",
            "Group": "LFCN",
            "Heading": "LFCN_METH",
            "Comments": "Missing from document, but listed on website"
        },
        {
            "Action": "Miscellaneous",
            "Group": "SUCT",
            "Heading": "SUCT_DEV",
            "Comments": "Missing from document, but listed on website"
        },
        {
            "Action": "Removed Heading",
            "Group": "GCHM",
            "Heading": "GCHM_RDEV",
            "Comments": "Added in error"
        },
        {
            "Action": "Removed Heading",
            "Group": "PMTL",
            "Heading": "PMTD_SEQ",
            "Comments": "Marked for deletion in AGS 4.0.4"
        },
        {
            "Action": "Removed Heading",
            "Group": "WGPG",
            "Heading": "WGPG_LIM",
            "Comments": "Added in error"
        },
        {
            "Action": "Removed Heading",
            "Group": "WGPG",
            "Heading": "WGPG_ULIM",
            "Comments": "Added in error"
        },
        {
            "Action": "Status change",
            "Group": "FGHT",
            "Heading": "FGHT_UNIT",
            "Comments": "Incorrectly shown on website with headings status \"Required\""
        },
        {
            "Action": "Units change",
            "Group": "ISAG",
            "Heading": "ISAG_SI",
            "Comments": "\"\" to \"m/s\""
        },
        {
            "Action": "Units change",
            "Group": "SCPT",
            "Heading": "SCPT_MAGT",
            "Comments": "\"\" to \"nT\""
        },
        {
            "Action": "Units change",
            "Group": "SCPT",
            "Heading": "SCPT_MAGX",
            "Comments": "\"\" to \"nT\""
        },
        {
            "Action": "Units change",
            "Group": "SCPT",
            "Heading": "SCPT_MAGY",
            "Comments": "\"\" to \"nT\""
        },
        {
            "Action": "Units change",
            "Group": "SCPT",
            "Heading": "SCPT_MAGZ",
            "Comments": "\"\" to \"nT\""
        },
        {
            "Action": "Units change",
            "Group": "WGPG",
            "Heading": "WGPT_DPTH",
            "Comments": "\"\" to \"m\""
        }
    ]
